{
    "en": {
        "system": {
            "startup": "\n\"%s\" started up",
            "lang": "Current language: %s\n",
            "aboutServer": "Server name: \"%s\"\n ↳ ID %s"
        },
        "pong": ":ping_pong: Pong!\nBot response speed is %s*ms*"
    },

    "ru": {
        "system": {
            "startup": "\n\"%s\" запущен",
            "lang": "Текущий язык: %s\n",
            "aboutServer": "Имя сервера: \"%s\"\n ↳ ID %s"
        },
        "pong": ":ping_pong: Понг!\nСкорость ответа: %s*ms*"
    }
}
